/home/doc/opt/sts-bundle/ws/parserfile/src/main/java/localhost/parserfile/Vendedor.java
/home/doc/opt/sts-bundle/ws/parserfile/src/main/java/localhost/parserfile/App.java
/home/doc/opt/sts-bundle/ws/parserfile/src/main/java/localhost/parserfile/Cliente.java
/home/doc/opt/sts-bundle/ws/parserfile/src/main/java/localhost/parserfile/Venda.java
